<?xml version="1.0" encoding="UTF-8" standalone="no"?>
<!-- Created with Inkscape (http://www.inkscape.org/) -->

<svg
   width="512"
   height="332"
   viewBox="0 0 135.46666 87.84167"
   version="1.1"
   id="svg5"
   inkscape:version="1.1.1 (3bf5ae0d25, 2021-09-20)"
   sodipodi:docname="pitch.svg"
   inkscape:export-filename="C:\Users\matt\Documents\dev\moco\graphics\pitch.png"
   inkscape:export-xdpi="96"
   inkscape:export-ydpi="96"
   xmlns:inkscape="http://www.inkscape.org/namespaces/inkscape"
   xmlns:sodipodi="http://sodipodi.sourceforge.net/DTD/sodipodi-0.dtd"
   xmlns="http://www.w3.org/2000/svg"
   xmlns:svg="http://www.w3.org/2000/svg">
  <sodipodi:namedview
     id="namedview7"
     pagecolor="#ffffff"
     bordercolor="#666666"
     borderopacity="1.0"
     inkscape:pageshadow="2"
     inkscape:pageopacity="0.0"
     inkscape:pagecheckerboard="0"
     inkscape:document-units="mm"
     showgrid="false"
     width="512mm"
     inkscape:zoom="0.62507591"
     inkscape:cx="1111.0651"
     inkscape:cy="275.96648"
     inkscape:window-width="2560"
     inkscape:window-height="1417"
     inkscape:window-x="-8"
     inkscape:window-y="-8"
     inkscape:window-maximized="1"
     inkscape:current-layer="layer1"
     units="px" />
  <defs
     id="defs2" />
  <g
     inkscape:label="Layer 1"
     inkscape:groupmode="layer"
     id="layer1">
    <rect
       style="opacity:1;fill:#59d400;fill-opacity:1;fill-rule:nonzero;stroke:#ffffff;stroke-width:1;stroke-miterlimit:4;stroke-dasharray:none"
       id="rect244"
       width="511.00247"
       height="331.00247"
       x="0.49876171"
       y="0.49876171" />
    <path
       style="fill:none;stroke:#ffffff;stroke-width:1;stroke-linecap:butt;stroke-linejoin:miter;stroke-miterlimit:4;stroke-dasharray:none;stroke-opacity:1"
       d="m 256.5,-3.4020619 c 0,369.8041019 0,370.8247319 0,370.8247319"
       id="path3144" />
    <circle
       style="fill:none;fill-opacity:1;stroke:#ffffff;stroke-width:1;stroke-miterlimit:4;stroke-dasharray:none;stroke-opacity:1"
       id="path3743"
       cx="256"
       cy="166"
       r="45" />
    <ellipse
       style="fill:none;fill-opacity:1;stroke:#ffffff;stroke-width:1.00002;stroke-miterlimit:4;stroke-dasharray:none;stroke-opacity:1"
       id="path3743-30"
       cx="0.491"
       cy="0.49075842"
       rx="4.9909892"
       ry="4.9907475" />
    <ellipse
       style="fill:none;fill-opacity:1;stroke:#ffffff;stroke-width:1.00002;stroke-miterlimit:4;stroke-dasharray:none;stroke-opacity:1"
       id="path3743-30-0"
       cx="62.768486"
       cy="95.415871"
       rx="4.9909892"
       ry="4.9907475" />
    <ellipse
       style="fill:none;fill-opacity:1;stroke:#ffffff;stroke-width:1;stroke-miterlimit:4;stroke-dasharray:none;stroke-opacity:1"
       id="path3743-4"
       cx="256.44586"
       cy="165.70541"
       rx="0.70542139"
       ry="0.70542121" />
    <circle
       style="fill:none;fill-opacity:1;stroke:#ffffff;stroke-width:1;stroke-miterlimit:4;stroke-dasharray:none;stroke-opacity:1"
       id="path3743-3"
       cx="55.5"
       cy="166.5"
       r="45" />
    <rect
       style="fill:#59d400;fill-opacity:1;stroke:#ffffff;stroke-width:1;stroke-miterlimit:4;stroke-dasharray:none;stroke-opacity:1"
       id="rect3847"
       width="81"
       height="198"
       x="0.5"
       y="67.5" />
    <rect
       style="fill:#59d400;fill-opacity:1;stroke:#ffffff;stroke-width:1;stroke-miterlimit:4;stroke-dasharray:none;stroke-opacity:1"
       id="rect3847-4"
       width="26.614368"
       height="89.614372"
       x="0.5"
       y="121.5" />
    <ellipse
       style="fill:none;fill-opacity:1;stroke:#ffffff;stroke-width:1;stroke-miterlimit:4;stroke-dasharray:none;stroke-opacity:1"
       id="path3743-4-0"
       cx="61"
       cy="166.02061"
       rx="0.70542139"
       ry="0.70542121" />
    <ellipse
       style="fill:none;fill-opacity:1;stroke:#ffffff;stroke-width:1.00002;stroke-miterlimit:4;stroke-dasharray:none;stroke-opacity:1"
       id="path3743-30-7"
       cx="0.49099922"
       cy="332.49075"
       rx="4.9909892"
       ry="4.9907475" />
    <ellipse
       style="fill:none;fill-opacity:1;stroke:#ffffff;stroke-width:1.00002;stroke-miterlimit:4;stroke-dasharray:none;stroke-opacity:1"
       id="path3743-30-9"
       cx="-511.58813"
       cy="0.49075842"
       rx="4.9909892"
       ry="4.9907475"
       transform="scale(-1,1)" />
    <ellipse
       style="fill:none;fill-opacity:1;stroke:#ffffff;stroke-width:1.00002;stroke-miterlimit:4;stroke-dasharray:none;stroke-opacity:1"
       id="path3743-30-0-4"
       cx="-449.31061"
       cy="95.415871"
       rx="4.9909892"
       ry="4.9907475"
       transform="scale(-1,1)" />
    <circle
       style="fill:none;fill-opacity:1;stroke:#ffffff;stroke-width:1;stroke-miterlimit:4;stroke-dasharray:none;stroke-opacity:1"
       id="path3743-3-1"
       cx="-456.2876"
       cy="166.5"
       r="45"
       transform="scale(-1,1)" />
    <rect
       style="fill:#59d400;fill-opacity:1;stroke:#ffffff;stroke-width:1;stroke-miterlimit:4;stroke-dasharray:none;stroke-opacity:1"
       id="rect3847-0"
       width="81"
       height="198"
       x="-511.57916"
       y="67.5"
       transform="scale(-1,1)" />
    <rect
       style="fill:#59d400;fill-opacity:1;stroke:#ffffff;stroke-width:1;stroke-miterlimit:4;stroke-dasharray:none;stroke-opacity:1"
       id="rect3847-4-2"
       width="26.614368"
       height="89.614372"
       x="-511.57916"
       y="121.5"
       transform="scale(-1,1)" />
    <ellipse
       style="fill:none;fill-opacity:1;stroke:#ffffff;stroke-width:1;stroke-miterlimit:4;stroke-dasharray:none;stroke-opacity:1"
       id="path3743-4-0-6"
       cx="-451.0791"
       cy="166.02061"
       rx="0.70542139"
       ry="0.70542121"
       transform="scale(-1,1)" />
    <ellipse
       style="fill:none;fill-opacity:1;stroke:#ffffff;stroke-width:1.00002;stroke-miterlimit:4;stroke-dasharray:none;stroke-opacity:1"
       id="path3743-30-7-4"
       cx="-511.58813"
       cy="332.49075"
       rx="4.9909892"
       ry="4.9907475"
       transform="scale(-1,1)" />
  </g>
</svg>
