{
    "asset" : {
        "generator" : "Khronos glTF Blender I/O v1.0.5",
        "version" : "2.0"
    },
    "scene" : 0,
    "scenes" : [
        {
            "name" : "Scene",
            "nodes" : [
                0,
                1,
                2
            ]
        }
    ],
    "nodes" : [
        {
            "mesh" : 0,
            "name" : "chassis",
            "translation" : [
                0,
                1,
                0
            ]
        },
        {
            "mesh" : 1,
            "name" : "turret",
            "translation" : [
                1.0322036743164062,
                1.5762300491333008,
                0
            ]
        },
        {
            "mesh" : 2,
            "name" : "track",
            "translation" : [
                0,
                1,
                2
            ]
        }
    ],
    "materials" : [
        {
            "doubleSided" : true,
            "name" : "tank mat",
            "pbrMetallicRoughness" : {
                "baseColorTexture" : {
                    "index" : 0,
                    "texCoord" : 0
                },
                "metallicFactor" : 0,
                "roughnessFactor" : 0.4000000059604645
            }
        },
        {
            "doubleSided" : true,
            "name" : "trackmat",
            "pbrMetallicRoughness" : {
                "baseColorTexture" : {
                    "index" : 1,
                    "texCoord" : 0
                },
                "metallicFactor" : 0,
                "roughnessFactor" : 0.5909091234207153
            }
        }
    ],
    "meshes" : [
        {
            "name" : "Cylinder.002",
            "primitives" : [
                {
                    "attributes" : {
                        "POSITION" : 0,
                        "NORMAL" : 1,
                        "TEXCOORD_0" : 2
                    },
                    "indices" : 3,
                    "material" : 0
                }
            ]
        },
        {
            "name" : "Cylinder.004",
            "primitives" : [
                {
                    "attributes" : {
                        "POSITION" : 4,
                        "NORMAL" : 5,
                        "TEXCOORD_0" : 6
                    },
                    "indices" : 7,
                    "material" : 0
                }
            ]
        },
        {
            "name" : "Cylinder.006",
            "primitives" : [
                {
                    "attributes" : {
                        "POSITION" : 8,
                        "NORMAL" : 9,
                        "TEXCOORD_0" : 10
                    },
                    "indices" : 11,
                    "material" : 1
                },
                {
                    "attributes" : {
                        "POSITION" : 12,
                        "NORMAL" : 13,
                        "TEXCOORD_0" : 14
                    },
                    "indices" : 15,
                    "material" : 0
                }
            ]
        }
    ],
    "textures" : [
        {
            "source" : 0
        },
        {
            "source" : 1
        }
    ],
    "images" : [
        {
            "mimeType" : "image/png",
            "name" : "Untitled",
            "uri" : "Untitled.png"
        },
        {
            "mimeType" : "image/png",
            "name" : "Untitled",
            "uri" : "Untitled-1.png"
        }
    ],
    "accessors" : [
        {
            "bufferView" : 0,
            "componentType" : 5126,
            "count" : 68,
            "max" : [
                2.745687246322632,
                0.8564901351928711,
                1.4455347061157227
            ],
            "min" : [
                -2.412919282913208,
                -0.6537318229675293,
                -1.4462850093841553
            ],
            "type" : "VEC3"
        },
        {
            "bufferView" : 1,
            "componentType" : 5126,
            "count" : 68,
            "type" : "VEC3"
        },
        {
            "bufferView" : 2,
            "componentType" : 5126,
            "count" : 68,
            "type" : "VEC2"
        },
        {
            "bufferView" : 3,
            "componentType" : 5123,
            "count" : 108,
            "type" : "SCALAR"
        },
        {
            "bufferView" : 4,
            "componentType" : 5126,
            "count" : 322,
            "max" : [
                4.102571487426758,
                1.7394192218780518,
                1.26033353805542
            ],
            "min" : [
                -2.1895084381103516,
                -0.5421199798583984,
                -1.26033353805542
            ],
            "type" : "VEC3"
        },
        {
            "bufferView" : 5,
            "componentType" : 5126,
            "count" : 322,
            "type" : "VEC3"
        },
        {
            "bufferView" : 6,
            "componentType" : 5126,
            "count" : 322,
            "type" : "VEC2"
        },
        {
            "bufferView" : 7,
            "componentType" : 5123,
            "count" : 534,
            "type" : "SCALAR"
        },
        {
            "bufferView" : 8,
            "componentType" : 5126,
            "count" : 124,
            "max" : [
                3.369464159011841,
                1.1913530826568604,
                0.48839831352233887
            ],
            "min" : [
                -3.3761813640594482,
                -1.0207467079162598,
                -0.48839783668518066
            ],
            "type" : "VEC3"
        },
        {
            "bufferView" : 9,
            "componentType" : 5126,
            "count" : 124,
            "type" : "VEC3"
        },
        {
            "bufferView" : 10,
            "componentType" : 5126,
            "count" : 124,
            "type" : "VEC2"
        },
        {
            "bufferView" : 11,
            "componentType" : 5123,
            "count" : 216,
            "type" : "SCALAR"
        },
        {
            "bufferView" : 12,
            "componentType" : 5126,
            "count" : 120,
            "max" : [
                3.170539617538452,
                0.991699755191803,
                0.6540546417236328
            ],
            "min" : [
                -3.1620724201202393,
                -0.8224316835403442,
                -0.6540541648864746
            ],
            "type" : "VEC3"
        },
        {
            "bufferView" : 13,
            "componentType" : 5126,
            "count" : 120,
            "type" : "VEC3"
        },
        {
            "bufferView" : 14,
            "componentType" : 5126,
            "count" : 120,
            "type" : "VEC2"
        },
        {
            "bufferView" : 15,
            "componentType" : 5123,
            "count" : 204,
            "type" : "SCALAR"
        }
    ],
    "bufferViews" : [
        {
            "buffer" : 0,
            "byteLength" : 816,
            "byteOffset" : 0
        },
        {
            "buffer" : 0,
            "byteLength" : 816,
            "byteOffset" : 816
        },
        {
            "buffer" : 0,
            "byteLength" : 544,
            "byteOffset" : 1632
        },
        {
            "buffer" : 0,
            "byteLength" : 216,
            "byteOffset" : 2176
        },
        {
            "buffer" : 0,
            "byteLength" : 3864,
            "byteOffset" : 2392
        },
        {
            "buffer" : 0,
            "byteLength" : 3864,
            "byteOffset" : 6256
        },
        {
            "buffer" : 0,
            "byteLength" : 2576,
            "byteOffset" : 10120
        },
        {
            "buffer" : 0,
            "byteLength" : 1068,
            "byteOffset" : 12696
        },
        {
            "buffer" : 0,
            "byteLength" : 1488,
            "byteOffset" : 13764
        },
        {
            "buffer" : 0,
            "byteLength" : 1488,
            "byteOffset" : 15252
        },
        {
            "buffer" : 0,
            "byteLength" : 992,
            "byteOffset" : 16740
        },
        {
            "buffer" : 0,
            "byteLength" : 432,
            "byteOffset" : 17732
        },
        {
            "buffer" : 0,
            "byteLength" : 1440,
            "byteOffset" : 18164
        },
        {
            "buffer" : 0,
            "byteLength" : 1440,
            "byteOffset" : 19604
        },
        {
            "buffer" : 0,
            "byteLength" : 960,
            "byteOffset" : 21044
        },
        {
            "buffer" : 0,
            "byteLength" : 408,
            "byteOffset" : 22004
        }
    ],
    "buffers" : [
        {
            "byteLength" : 22412,
            "uri" : "tankmk3.bin"
        }
    ]
}
